255,0,0
0,255,0
0,0,255

255,255,0
0,255,255
255,0,255

255,125,0
0,255,125
125,0,255

0,125,255
255,0,125
125,255,0

125,125,125

255,125,255
255,255,125
125,255,255

125,125,255
125,255,125
255,125,125

